<?xml version="1.0" standalone="no"?>
<!DOCTYPE svg PUBLIC "-//W3C//DTD SVG 20010904//EN"
 "http://www.w3.org/TR/2001/REC-SVG-20010904/DTD/svg10.dtd">
<svg version="1.0" xmlns="http://www.w3.org/2000/svg"
 width="16.000000pt" height="16.000000pt" viewBox="0 0 16.000000 16.000000"
 preserveAspectRatio="xMidYMid meet">
<metadata>
Created by potrace 1.11, written by Peter Selinger 2001-2013
</metadata>
<g transform="translate(0.000000,16.000000) scale(0.005755,-0.005755)"
fill="#000000" stroke="none">
<path d="M1665 2730 c6 -31 52 -170 75 -227 6 -15 26 -26 67 -38 51 -14 223
-99 256 -125 7 -5 39 -30 72 -56 95 -73 214 -206 274 -305 42 -68 100 -196
125 -274 23 -72 32 -115 51 -240 7 -46 7 -210 0 -246 -3 -13 -7 -46 -10 -74
-2 -27 -15 -88 -28 -135 -86 -305 -281 -559 -551 -719 -48 -28 -93 -51 -101
-51 -8 0 -15 -4 -15 -8 0 -7 -26 -18 -90 -37 -3 -1 -12 -4 -20 -8 -52 -20 -99
-31 -170 -40 -44 -6 -44 -6 -10 4 19 6 64 20 100 31 189 58 396 217 516 397
89 131 163 319 182 456 8 64 8 289 -1 335 -4 19 -9 49 -12 65 -10 57 -58 190
-93 260 -99 199 -246 350 -438 452 -51 27 -89 54 -94 67 -6 16 -98 147 -115
165 -3 2 1 -223 4 -252 1 -4 18 -15 39 -23 100 -41 204 -99 254 -141 245 -210
362 -470 354 -783 -4 -131 -14 -196 -48 -295 -21 -63 -93 -215 -106 -225 -4
-3 -19 -23 -33 -45 -15 -22 -56 -70 -93 -108 -199 -200 -472 -297 -741 -263
-394 49 -720 380 -782 791 -9 63 -8 234 1 300 44 303 253 599 509 721 l37 18
1 75 c2 109 6 179 13 197 24 64 -84 -87 -123 -171 -12 -27 -37 -53 -77 -80
-97 -66 -168 -131 -237 -220 -26 -33 -51 -65 -56 -71 -5 -6 -27 -45 -50 -86
-124 -227 -162 -476 -115 -757 16 -92 115 -333 149 -361 8 -7 15 -17 15 -22 0
-17 107 -142 168 -196 86 -77 118 -99 229 -153 35 -17 66 -35 69 -41 4 -6 -1
-6 -12 1 -20 10 -155 73 -164 76 -50 15 -221 148 -304 236 -249 265 -356 585
-322 966 6 68 42 224 66 288 6 17 11 31 11 33 -1 1 22 46 50 100 136 261 348
455 611 560 18 7 30 21 33 39 4 15 15 64 27 108 11 44 22 94 24 110 4 29 4 29
-8 7 -18 -36 -172 -189 -199 -197 -13 -4 -42 -19 -64 -33 -22 -14 -51 -31 -64
-38 -71 -37 -235 -186 -316 -285 -43 -54 -115 -167 -145 -229 -17 -36 -35 -73
-40 -82 -33 -59 -87 -271 -97 -375 -37 -410 94 -782 376 -1070 243 -249 571
-386 921 -386 86 0 185 10 250 24 25 6 54 12 64 15 43 8 155 49 226 81 188 86
420 282 520 438 24 39 47 72 50 75 20 18 123 248 135 300 2 8 14 58 26 110 19
79 23 124 23 265 0 177 -2 194 -28 310 -44 189 -140 387 -258 532 -52 64 -178
183 -248 235 -80 58 -184 118 -206 118 -38 0 -124 62 -206 150 -86 90 -90 93
-83 60z"/>
<path d="M1316 2719 c-123 -104 -71 -264 80 -245 112 13 152 77 113 181 -23
61 -50 83 -111 91 -38 5 -48 2 -82 -27z"/>
<path d="M1349 2311 c-51 -20 -89 -71 -89 -121 0 -84 72 -131 154 -100 46 17
74 108 48 157 -21 39 -85 75 -113 64z"/>
<path d="M1344 1870 c-32 -12 -74 -73 -81 -113 -6 -39 21 -95 59 -121 39 -27
120 16 149 79 22 48 13 91 -28 131 -34 34 -59 40 -99 24z"/>
<path d="M1539 1803 c-1 -5 0 -12 1 -18 1 -5 3 -39 4 -75 2 -62 23 -117 44
-114 33 6 145 -68 218 -143 247 -255 233 -675 -29 -920 -119 -111 -265 -167
-427 -164 -47 1 -72 4 -125 15 -45 9 -124 44 -173 76 -188 121 -286 303 -295
545 0 28 1 55 4 60 3 6 6 26 8 45 4 56 49 177 87 238 67 105 168 194 276 242
26 11 48 25 50 32 4 12 -9 145 -17 165 -8 22 -34 2 -46 -35 -12 -39 -36 -72
-51 -72 -18 0 -143 -87 -183 -127 -132 -132 -195 -252 -229 -438 -14 -72 -6
-220 16 -300 5 -22 11 -44 12 -50 1 -5 12 -32 24 -59 12 -27 22 -50 22 -53 0
-14 80 -125 123 -171 76 -80 211 -169 282 -186 6 -2 30 -8 55 -15 202 -58 439
-8 610 128 140 112 227 247 270 420 65 259 -16 540 -207 723 -61 57 -150 120
-190 132 -13 4 -23 11 -23 16 0 16 -81 110 -95 110 -8 0 -16 -3 -16 -7z"/>
<path d="M1295 1378 c-130 -19 -250 -95 -325 -202 -32 -47 -68 -124 -75 -160
-2 -12 -4 -21 -6 -21 -4 0 -9 -55 -9 -117 -1 -87 14 -147 58 -231 62 -121 180
-216 306 -246 60 -15 175 -12 232 5 151 45 279 169 329 319 21 61 24 82 25
170 2 290 -259 525 -535 483z m220 -144 c279 -136 274 -561 -8 -699 -133 -65
-278 -43 -394 58 -78 69 -121 166 -124 277 -8 289 277 487 526 364z"/>
</g>
</svg>
